project
…
covid <- covid %>%
  mutate(caseratio = cases/deaths)

covid %>%
  group_by(cases) %>%
  summarize(mean(workplaces))

## # A tibble: 77,130 × 2
##    cases `mean(workplaces)`
##    <dbl>              <dbl>
##  1    31                 NA
##  2    32                 NA
##  3    33                 NA
##  4    43                 NA
##  5    47                 NA
##  6    48                 NA
##  7    49                 NA
##  8    52                 NA
##  9    53                 NA
## 10    54                 NA
## # ℹ 77,120 more rows
…
